simulation/qsim/CEG3155_PROJECT.msim.vcd
$comment
	File created using the following command:
		vcd file CEG3155_PROJECT.msim.vcd -direction
$end
$date
	Wed Dec 04 20:35:00 2024
$end
$version
	ModelSim Version 10.1d
$end
$timescale
	1ps
$end
$scope module baudRateGenerator_vlg_vec_tst $end
$var reg 3 ! baudSel [2:0] $end
$var reg 1 " clk $end
$var reg 1 # reset $end
$var wire 1 $ bclk $end
$var wire 1 % bclkx8 $end
$var wire 1 & sampler $end
$scope module i1 $end
$var wire 1 ' gnd $end
$var wire 1 ( vcc $end
$var wire 1 ) unknown $end
$var tri1 1 * devclrn $end
$var tri1 1 + devpor $end
$var tri1 1 , devoe $end
$var wire 1 - div41|Add0~0_combout $end
$var wire 1 . div41|Add0~1 $end
$var wire 1 / div41|Add0~2_combout $end
$var wire 1 0 div41|Add0~3 $end
$var wire 1 1 div41|Add0~4_combout $end
$var wire 1 2 div41|Add0~5 $end
$var wire 1 3 div41|Add0~6_combout $end
$var wire 1 4 div41|Add0~7 $end
$var wire 1 5 div41|Add0~8_combout $end
$var wire 1 6 div41|Add0~9 $end
$var wire 1 7 div41|Add0~10_combout $end
$var wire 1 8 div41|int_clk~q $end
$var wire 1 9 div41|Equal0~0_combout $end
$var wire 1 : div41|int_clk~0_combout $end
$var wire 1 ; div41|int_count~0_combout $end
$var wire 1 < div41|int_count~1_combout $end
$var wire 1 = div41|int_count~2_combout $end
$var wire 1 > baudSel[2]~input_o $end
$var wire 1 ? clk~input_o $end
$var wire 1 @ clk~inputclkctrl_outclk $end
$var wire 1 A bclk~output_o $end
$var wire 1 B bclkx8~output_o $end
$var wire 1 C baudSel[1]~input_o $end
$var wire 1 D count2|reg|reg_n_bits:1:b|int_q~0_combout $end
$var wire 1 E reset~input_o $end
$var wire 1 F reset~inputclkctrl_outclk $end
$var wire 1 G count2|reg|reg_n_bits:1:b|int_q~q $end
$var wire 1 H count2|reg|reg_n_bits:0:b|int_q~0_combout $end
$var wire 1 I count2|reg|reg_n_bits:0:b|int_q~q $end
$var wire 1 J count2|reg|reg_n_bits:2:b|int_q~0_combout $end
$var wire 1 K count2|reg|reg_n_bits:2:b|int_q~q $end
$var wire 1 L count2|adder|loop_add:3:addrn|carryFromBoth~combout $end
$var wire 1 M count2|reg|reg_n_bits:4:b|int_q~0_combout $end
$var wire 1 N count2|reg|reg_n_bits:4:b|int_q~q $end
$var wire 1 O count2|reg|reg_n_bits:5:b|int_q~0_combout $end
$var wire 1 P count2|reg|reg_n_bits:5:b|int_q~q $end
$var wire 1 Q count2|reg|reg_n_bits:6:b|int_q~0_combout $end
$var wire 1 R count2|reg|reg_n_bits:6:b|int_q~q $end
$var wire 1 S count2|reg|reg_n_bits:7:b|int_q~0_combout $end
$var wire 1 T count2|reg|reg_n_bits:7:b|int_q~1_combout $end
$var wire 1 U count2|reg|reg_n_bits:7:b|int_q~q $end
$var wire 1 V baudMux|mux2|muxfinal|y~1_combout $end
$var wire 1 W baudMux|mux2|muxfinal|y~0_combout $end
$var wire 1 X baudMux|mux2|muxfinal|y~2_combout $end
$var wire 1 Y baudMux|mux1|muxfinal|y~0_combout $end
$var wire 1 Z baudSel[0]~input_o $end
$var wire 1 [ count2|reg|reg_n_bits:3:b|int_q~0_combout $end
$var wire 1 \ count2|reg|reg_n_bits:3:b|int_q~q $end
$var wire 1 ] baudMux|mux1|muxfinal|y~1_combout $end
$var wire 1 ^ baudMux|mux1|muxfinal|y~2_combout $end
$var wire 1 _ baudMux|muxfinal|y~combout $end
$var wire 1 ` baudMux|muxfinal|y~clkctrl_outclk $end
$var wire 1 a count3|reg|reg_n_bits:0:b|int_q~0_combout $end
$var wire 1 b count3|reg|reg_n_bits:0:b|int_q~q $end
$var wire 1 c count3|reg|reg_n_bits:1:b|int_q~0_combout $end
$var wire 1 d count3|reg|reg_n_bits:1:b|int_q~q $end
$var wire 1 e count3|reg|reg_n_bits:2:b|int_q~0_combout $end
$var wire 1 f count3|reg|reg_n_bits:2:b|int_q~q $end
$var wire 1 g div41|int_count [5] $end
$var wire 1 h div41|int_count [4] $end
$var wire 1 i div41|int_count [3] $end
$var wire 1 j div41|int_count [2] $end
$var wire 1 k div41|int_count [1] $end
$var wire 1 l div41|int_count [0] $end
$upscope $end
$upscope $end
$enddefinitions $end
#0
$dumpvars
b0 !
0"
1#
0$
0%
x&
0'
1(
x)
1*
1+
1,
1-
0.
0/
10
01
02
03
14
05
06
07
08
09
0:
0;
1<
0=
0>
0?
0@
0A
0B
0C
0D
1E
1F
0G
1H
0I
0J
0K
0L
0M
0N
0O
0P
0Q
0R
1S
0T
0U
1V
1W
1X
1Y
0Z
0[
0\
1]
1^
0_
0`
1a
0b
0c
0d
0e
0f
0l
0k
0j
0i
0h
0g
$end
#19860
1"
1?
1@
0&
1l
1.
0-
1/
0<
#39720
0"
0?
0@
1&
#50000
0#
0E
0F
0&
#59580
1"
1?
1@
1&
1k
0l
00
0/
0.
1-
11
10
1/
1<
01
#79440
0"
0?
0@
0&
#99300
1"
1?
1@
1&
1l
1.
0-
00
0/
0<
11
#119160
0"
0?
0@
0&
#139020
1"
1?
1@
1&
1j
0k
0l
12
01
10
1/
0.
1-
13
02
11
0/
1<
1;
03
0;
#158880
0"
0?
0@
0&
#178740
1"
1?
1@
1&
1l
1.
0-
1/
0<
#198600
0"
0?
0@
0&
#218460
1"
1?
1@
1&
1k
0l
00
0/
0.
1-
12
01
10
1/
1<
13
02
11
1;
03
0;
#238320
0"
0?
0@
0&
#258180
1"
1?
1@
1&
1l
1.
0-
00
0/
0<
12
01
13
1;
#278040
0"
0?
0@
0&
#297900
1"
1?
1@
1&
0j
0k
0l
1i
19
02
11
10
1/
0.
1-
04
03
1<
0;
14
13
01
0/
15
05
1;
#317760
0"
0?
0@
0&
#337620
1"
1?
1@
1&
1l
09
1.
0-
0<
1/
#357480
0"
0?
0@
0&
#377340
1"
1?
1@
1&
1k
0l
00
0/
0.
1-
11
10
1/
1<
01
#397200
0"
0?
0@
0&
#417060
1"
1?
1@
1&
1l
1.
0-
00
0/
0<
11
#436920
0"
0?
0@
0&
#456780
1"
1?
1@
1&
1j
0k
0l
12
01
10
1/
0.
1-
04
03
02
11
0/
1<
15
0;
14
13
05
1;
#476640
0"
0?
0@
0&
#496500
1"
1?
1@
1&
1l
1.
0-
1/
0<
#516360
0"
0?
0@
0&
#536220
1"
1?
1@
1&
1k
0l
00
0/
0.
1-
12
01
10
1/
1<
04
03
02
11
15
0;
14
13
05
1;
#556080
0"
0?
0@
0&
#575940
1"
1?
1@
1&
1l
1.
0-
00
0/
0<
12
01
04
03
15
0;
#595800
0"
0?
0@
0&
#615660
1"
1?
1@
1&
0j
0k
0l
0i
1h
02
11
10
1/
0.
1-
14
13
16
05
03
01
0/
1<
06
15
1;
17
0;
07
1=
0=
#635520
0"
0?
0@
0&
#655380
1"
1?
1@
1&
1l
1.
0-
1/
0<
#675240
0"
0?
0@
0&
#695100
1"
1?
1@
1&
1k
0l
00
0/
0.
1-
11
10
1/
1<
01
#714960
0"
0?
0@
0&
#734820
1"
1?
1@
1&
1l
1.
0-
00
0/
0<
11
#754680
0"
0?
0@
0&
#774540
1"
1?
1@
1&
1j
0k
0l
12
01
10
1/
0.
1-
13
02
11
0/
1<
1;
03
0;
#794400
0"
0?
0@
0&
#814260
1"
1?
1@
1&
1l
1.
0-
1/
0<
#834120
0"
0?
0@
0&
#853980
1"
1?
1@
1&
1k
0l
00
0/
0.
1-
12
01
10
1/
1<
13
02
11
1;
03
0;
#873840
0"
0?
0@
0&
#893700
1"
1?
1@
1&
1l
1.
0-
00
0/
0<
12
01
13
1;
#913560
0"
0?
0@
0&
#933420
1"
1?
1@
1&
0j
0k
0l
1i
19
02
11
10
1/
0.
1-
04
03
1<
0;
14
13
01
0/
16
05
06
15
1;
17
07
1=
0=
#953280
0"
0?
0@
0&
#973140
1"
1?
1@
1&
1l
09
1.
0-
0<
1/
#993000
0"
0?
0@
0&
#1012860
1"
1?
1@
1&
1k
0l
00
0/
0.
1-
11
10
1/
1<
01
#1032720
0"
0?
0@
0&
#1052580
1"
1?
1@
1&
1l
1.
0-
00
0/
0<
11
#1072440
0"
0?
0@
0&
#1092300
1"
1?
1@
1&
1j
0k
0l
12
01
10
1/
0.
1-
04
03
02
11
0/
1<
16
05
0;
14
13
17
06
15
1;
1=
07
0=
#1112160
0"
0?
0@
0&
#1132020
1"
1?
1@
1&
1l
1.
0-
1/
0<
#1151880
0"
0?
0@
0&
#1171740
1"
1?
1@
1&
1k
0l
00
0/
0.
1-
12
01
10
1/
1<
04
03
02
11
16
05
0;
14
13
17
06
15
1;
1=
07
0=
#1191600
0"
0?
0@
0&
#1211460
1"
1?
1@
1&
1l
1.
0-
00
0/
0<
12
01
04
03
16
05
0;
17
1=
#1231320
0"
0?
0@
0&
#1251180
1"
1?
1@
1&
1g
0j
0k
0l
0i
0h
07
02
11
10
1/
0.
1-
14
13
06
15
0=
03
01
0/
1<
05
1;
17
0;
1=
#1271040
0"
0?
0@
0&
#1290900
1"
1?
1@
1&
1l
1.
0-
1/
0<
#1310760
0"
0?
0@
0&
#1330620
1"
1?
1@
1&
1k
0l
00
0/
0.
1-
11
10
1/
1<
01
#1350480
0"
0?
0@
0&
#1370340
1"
1?
1@
1&
1l
1.
0-
00
0/
0<
11
#1390200
0"
0?
0@
0&
#1410060
1"
1?
1@
1&
1j
0k
0l
12
01
10
1/
0.
1-
13
02
11
0/
1<
1;
03
0;
#1429920
0"
0?
0@
0&
#1449780
1"
1?
1@
1&
1l
1.
0-
1/
0<
#1469640
0"
0?
0@
0&
#1489500
1"
1?
1@
1&
1k
0l
00
0/
0.
1-
12
01
10
1/
1<
13
02
11
1;
03
0;
#1509360
0"
0?
0@
0&
#1529220
1"
1?
1@
1&
1l
1.
0-
00
0/
0<
12
01
13
1;
#1549080
0"
0?
0@
0&
#1568940
1"
1?
1@
1&
0j
0k
0l
1i
19
02
11
10
1/
0.
1-
04
03
0=
1:
14
13
01
0/
15
05
0;
#1588800
0"
0?
0@
0&
#1608660
1"
1?
1@
1&
0g
0i
18
1=
1<
1;
07
09
03
0=
0;
1I
0Y
0H
1D
0^
1_
1`
1B
1%
1b
1c
0a
#1628520
0"
0?
0@
0&
#1648380
1"
1?
1@
1&
1l
1.
0-
1/
0<
#1668240
0"
0?
0@
0&
#1688100
1"
1?
1@
1&
1k
0l
00
0/
0.
1-
11
10
1/
1<
01
#1707960
0"
0?
0@
0&
#1727820
1"
1?
1@
1&
1l
1.
0-
00
0/
0<
11
#1747680
0"
0?
0@
0&
#1767540
1"
1?
1@
1&
1j
0k
0l
12
01
10
1/
0.
1-
13
02
11
0/
1<
1;
03
0;
#1787400
0"
0?
0@
0&
#1807260
1"
1?
1@
1&
1l
1.
0-
1/
0<
#1827120
0"
0?
0@
0&
#1846980
1"
1?
1@
1&
1k
0l
00
0/
0.
1-
12
01
10
1/
1<
13
02
11
1;
03
0;
#1866840
0"
0?
0@
0&
#1886700
1"
1?
1@
1&
1l
1.
0-
00
0/
0<
12
01
13
1;
#1906560
0"
0?
0@
0&
#1926420
1"
1?
1@
1&
0j
0k
0l
1i
19
02
11
10
1/
0.
1-
04
03
1<
0;
14
13
01
0/
15
05
1;
#1946280
0"
0?
0@
0&
#1966140
1"
1?
1@
1&
1l
09
1.
0-
0<
1/
#1986000
0"
0?
0@
0&
#2005860
1"
1?
1@
1&
1k
0l
00
0/
0.
1-
11
10
1/
1<
01
#2025720
0"
0?
0@
0&
#2045580
1"
1?
1@
1&
1l
1.
0-
00
0/
0<
11
#2065440
0"
0?
0@
0&
#2085300
1"
1?
1@
1&
1j
0k
0l
12
01
10
1/
0.
1-
04
03
02
11
0/
1<
15
0;
14
13
05
1;
#2105160
0"
0?
0@
0&
#2125020
1"
1?
1@
1&
1l
1.
0-
1/
0<
#2144880
0"
0?
0@
0&
#2164740
1"
1?
1@
1&
1k
0l
00
0/
0.
1-
12
01
10
1/
1<
04
03
02
11
15
0;
14
13
05
1;
#2184600
0"
0?
0@
0&
#2204460
1"
1?
1@
1&
1l
1.
0-
00
0/
0<
12
01
04
03
15
0;
#2224320
0"
0?
0@
0&
#2244180
1"
1?
1@
1&
0j
0k
0l
0i
1h
02
11
10
1/
0.
1-
14
13
16
05
03
01
0/
1<
06
15
1;
17
0;
07
1=
0=
#2264040
0"
0?
0@
0&
#2283900
1"
1?
1@
1&
1l
1.
0-
1/
0<
#2303760
0"
0?
0@
0&
#2323620
1"
1?
1@
1&
1k
0l
00
0/
0.
1-
11
10
1/
1<
01
#2343480
0"
0?
0@
0&
#2363340
1"
1?
1@
1&
1l
1.
0-
00
0/
0<
11
#2383200
0"
0?
0@
0&
#2403060
1"
1?
1@
1&
1j
0k
0l
12
01
10
1/
0.
1-
13
02
11
0/
1<
1;
03
0;
#2422920
0"
0?
0@
0&
#2442780
1"
1?
1@
1&
1l
1.
0-
1/
0<
#2462640
0"
0?
0@
0&
#2482500
1"
1?
1@
1&
1k
0l
00
0/
0.
1-
12
01
10
1/
1<
13
02
11
1;
03
0;
#2502360
0"
0?
0@
0&
#2522220
1"
1?
1@
1&
1l
1.
0-
00
0/
0<
12
01
13
1;
#2542080
0"
0?
0@
0&
#2561940
1"
1?
1@
1&
0j
0k
0l
1i
19
02
11
10
1/
0.
1-
04
03
1<
0;
14
13
01
0/
16
05
06
15
1;
17
07
1=
0=
#2581800
0"
0?
0@
0&
#2601660
1"
1?
1@
1&
1l
09
1.
0-
0<
1/
#2621520
0"
0?
0@
0&
#2641380
1"
1?
1@
1&
1k
0l
00
0/
0.
1-
11
10
1/
1<
01
#2661240
0"
0?
0@
0&
#2681100
1"
1?
1@
1&
1l
1.
0-
00
0/
0<
11
#2700960
0"
0?
0@
0&
#2720820
1"
1?
1@
1&
1j
0k
0l
12
01
10
1/
0.
1-
04
03
02
11
0/
1<
16
05
0;
14
13
17
06
15
1;
1=
07
0=
#2740680
0"
0?
0@
0&
#2760540
1"
1?
1@
1&
1l
1.
0-
1/
0<
#2780400
0"
0?
0@
0&
#2800260
1"
1?
1@
1&
1k
0l
00
0/
0.
1-
12
01
10
1/
1<
04
03
02
11
16
05
0;
14
13
17
06
15
1;
1=
07
0=
#2820120
0"
0?
0@
0&
#2839980
1"
1?
1@
1&
1l
1.
0-
00
0/
0<
12
01
04
03
16
05
0;
17
1=
#2859840
0"
0?
0@
0&
#2879700
1"
1?
1@
1&
1g
0j
0k
0l
0i
0h
07
02
11
10
1/
0.
1-
14
13
06
15
0=
03
01
0/
1<
05
1;
17
0;
1=
#2899560
0"
0?
0@
0&
#2919420
1"
1?
1@
1&
1l
1.
0-
1/
0<
#2939280
0"
0?
0@
0&
#2959140
1"
1?
1@
1&
1k
0l
00
0/
0.
1-
11
10
1/
1<
01
#2979000
0"
0?
0@
0&
#2998860
1"
1?
1@
1&
1l
1.
0-
00
0/
0<
11
#3018720
0"
0?
0@
0&
#3038580
1"
1?
1@
1&
1j
0k
0l
12
01
10
1/
0.
1-
13
02
11
0/
1<
1;
03
0;
#3058440
0"
0?
0@
0&
#3078300
1"
1?
1@
1&
1l
1.
0-
1/
0<
#3098160
0"
0?
0@
0&
#3118020
1"
1?
1@
1&
1k
0l
00
0/
0.
1-
12
01
10
1/
1<
13
02
11
1;
03
0;
#3137880
0"
0?
0@
0&
#3157740
1"
1?
1@
1&
1l
1.
0-
00
0/
0<
12
01
13
1;
#3177600
0"
0?
0@
0&
#3197460
1"
1?
1@
1&
0j
0k
0l
1i
19
02
11
10
1/
0.
1-
04
03
0=
0:
14
13
01
0/
15
05
0;
#3217320
0"
0?
0@
0&
#3237180
1"
1?
1@
1&
0g
0i
08
1=
1<
1;
07
09
03
0=
0;
#3257040
0"
0?
0@
0&
#3276900
1"
1?
1@
1&
1l
1.
0-
1/
0<
#3296760
0"
0?
0@
0&
#3316620
1"
1?
1@
1&
1k
0l
00
0/
0.
1-
11
10
1/
1<
01
#3336480
0"
0?
0@
0&
#3356340
1"
1?
1@
1&
1l
1.
0-
00
0/
0<
11
#3376200
0"
0?
0@
0&
#3396060
1"
1?
1@
1&
1j
0k
0l
12
01
10
1/
0.
1-
13
02
11
0/
1<
1;
03
0;
#3415920
0"
0?
0@
0&
#3435780
1"
1?
1@
1&
1l
1.
0-
1/
0<
#3455640
0"
0?
0@
0&
#3475500
1"
1?
1@
1&
1k
0l
00
0/
0.
1-
12
01
10
1/
1<
13
02
11
1;
03
0;
#3495360
0"
0?
0@
0&
#3515220
1"
1?
1@
1&
1l
1.
0-
00
0/
0<
12
01
13
1;
#3535080
0"
0?
0@
0&
#3554940
1"
1?
1@
1&
0j
0k
0l
1i
19
02
11
10
1/
0.
1-
04
03
1<
0;
14
13
01
0/
15
05
1;
#3574800
0"
0?
0@
0&
#3594660
1"
1?
1@
1&
1l
09
1.
0-
0<
1/
#3614520
0"
0?
0@
0&
#3634380
1"
1?
1@
1&
1k
0l
00
0/
0.
1-
11
10
1/
1<
01
#3654240
0"
0?
0@
0&
#3674100
1"
1?
1@
1&
1l
1.
0-
00
0/
0<
11
#3693960
0"
0?
0@
0&
#3713820
1"
1?
1@
1&
1j
0k
0l
12
01
10
1/
0.
1-
04
03
02
11
0/
1<
15
0;
14
13
05
1;
#3733680
0"
0?
0@
0&
#3753540
1"
1?
1@
1&
1l
1.
0-
1/
0<
#3773400
0"
0?
0@
0&
#3793260
1"
1?
1@
1&
1k
0l
00
0/
0.
1-
12
01
10
1/
1<
04
03
02
11
15
0;
14
13
05
1;
#3813120
0"
0?
0@
0&
#3832980
1"
1?
1@
1&
1l
1.
0-
00
0/
0<
12
01
04
03
15
0;
#3852840
0"
0?
0@
0&
#3872700
1"
1?
1@
1&
0j
0k
0l
0i
1h
02
11
10
1/
0.
1-
14
13
16
05
03
01
0/
1<
06
15
1;
17
0;
07
1=
0=
#3892560
0"
0?
0@
0&
#3912420
1"
1?
1@
1&
1l
1.
0-
1/
0<
#3932280
0"
0?
0@
0&
#3952140
1"
1?
1@
1&
1k
0l
00
0/
0.
1-
11
10
1/
1<
01
#3972000
0"
0?
0@
0&
#3991860
1"
1?
1@
1&
1l
1.
0-
00
0/
0<
11
#4011720
0"
0?
0@
0&
#4031580
1"
1?
1@
1&
1j
0k
0l
12
01
10
1/
0.
1-
13
02
11
0/
1<
1;
03
0;
#4051440
0"
0?
0@
0&
#4071300
1"
1?
1@
1&
1l
1.
0-
1/
0<
#4091160
0"
0?
0@
0&
#4111020
1"
1?
1@
1&
1k
0l
00
0/
0.
1-
12
01
10
1/
1<
13
02
11
1;
03
0;
#4130880
0"
0?
0@
0&
#4150740
1"
1?
1@
1&
1l
1.
0-
00
0/
0<
12
01
13
1;
#4170600
0"
0?
0@
0&
#4190460
1"
1?
1@
1&
0j
0k
0l
1i
19
02
11
10
1/
0.
1-
04
03
1<
0;
14
13
01
0/
16
05
06
15
1;
17
07
1=
0=
#4210320
0"
0?
0@
0&
#4230180
1"
1?
1@
1&
1l
09
1.
0-
0<
1/
#4250040
0"
0?
0@
0&
#4269900
1"
1?
1@
1&
1k
0l
00
0/
0.
1-
11
10
1/
1<
01
#4289760
0"
0?
0@
0&
#4309620
1"
1?
1@
1&
1l
1.
0-
00
0/
0<
11
#4329480
0"
0?
0@
0&
#4349340
1"
1?
1@
1&
1j
0k
0l
12
01
10
1/
0.
1-
04
03
02
11
0/
1<
16
05
0;
14
13
17
06
15
1;
1=
07
0=
#4369200
0"
0?
0@
0&
#4389060
1"
1?
1@
1&
1l
1.
0-
1/
0<
#4408920
0"
0?
0@
0&
#4428780
1"
1?
1@
1&
1k
0l
00
0/
0.
1-
12
01
10
1/
1<
04
03
02
11
16
05
0;
14
13
17
06
15
1;
1=
07
0=
#4448640
0"
0?
0@
0&
#4468500
1"
1?
1@
1&
1l
1.
0-
00
0/
0<
12
01
04
03
16
05
0;
17
1=
#4488360
0"
0?
0@
0&
#4508220
1"
1?
1@
1&
1g
0j
0k
0l
0i
0h
07
02
11
10
1/
0.
1-
14
13
06
15
0=
03
01
0/
1<
05
1;
17
0;
1=
#4528080
0"
0?
0@
0&
#4547940
1"
1?
1@
1&
1l
1.
0-
1/
0<
#4567800
0"
0?
0@
0&
#4587660
1"
1?
1@
1&
1k
0l
00
0/
0.
1-
11
10
1/
1<
01
#4607520
0"
0?
0@
0&
#4627380
1"
1?
1@
1&
1l
1.
0-
00
0/
0<
11
#4647240
0"
0?
0@
0&
#4667100
1"
1?
1@
1&
1j
0k
0l
12
01
10
1/
0.
1-
13
02
11
0/
1<
1;
03
0;
#4686960
0"
0?
0@
0&
#4706820
1"
1?
1@
1&
1l
1.
0-
1/
0<
#4726680
0"
0?
0@
0&
#4746540
1"
1?
1@
1&
1k
0l
00
0/
0.
1-
12
01
10
1/
1<
13
02
11
1;
03
0;
#4766400
0"
0?
0@
0&
#4786260
1"
1?
1@
1&
1l
1.
0-
00
0/
0<
12
01
13
1;
#4806120
0"
0?
0@
0&
#4825980
1"
1?
1@
1&
0j
0k
0l
1i
19
02
11
10
1/
0.
1-
04
03
0=
1:
14
13
01
0/
15
05
0;
#4845840
0"
0?
0@
0&
#4865700
1"
1?
1@
1&
0g
0i
18
1=
1<
1;
07
09
03
0=
0;
0I
1G
1Y
1H
1^
0_
0`
0B
0%
#4885560
0"
0?
0@
0&
#4905420
1"
1?
1@
1&
1l
1.
0-
1/
0<
#4925280
0"
0?
0@
0&
#4945140
1"
1?
1@
1&
1k
0l
00
0/
0.
1-
11
10
1/
1<
01
#4965000
0"
0?
0@
0&
#4984860
1"
1?
1@
1&
1l
1.
0-
00
0/
0<
11
#5004720
0"
0?
0@
0&
#5024580
1"
1?
1@
1&
1j
0k
0l
12
01
10
1/
0.
1-
13
02
11
0/
1<
1;
03
0;
#5044440
0"
0?
0@
0&
#5064300
1"
1?
1@
1&
1l
1.
0-
1/
0<
#5084160
0"
0?
0@
0&
#5104020
1"
1?
1@
1&
1k
0l
00
0/
0.
1-
12
01
10
1/
1<
13
02
11
1;
03
0;
#5123880
0"
0?
0@
0&
#5143740
1"
1?
1@
1&
1l
1.
0-
00
0/
0<
12
01
13
1;
#5163600
0"
0?
0@
0&
#5183460
1"
1?
1@
1&
0j
0k
0l
1i
19
02
11
10
1/
0.
1-
04
03
1<
0;
14
13
01
0/
15
05
1;
#5203320
0"
0?
0@
0&
#5223180
1"
1?
1@
1&
1l
09
1.
0-
0<
1/
#5243040
0"
0?
0@
0&
#5262900
1"
1?
1@
1&
1k
0l
00
0/
0.
1-
11
10
1/
1<
01
#5282760
0"
0?
0@
0&
#5302620
1"
1?
1@
1&
1l
1.
0-
00
0/
0<
11
#5322480
0"
0?
0@
0&
#5342340
1"
1?
1@
1&
1j
0k
0l
12
01
10
1/
0.
1-
04
03
02
11
0/
1<
15
0;
14
13
05
1;
#5362200
0"
0?
0@
0&
#5382060
1"
1?
1@
1&
1l
1.
0-
1/
0<
#5401920
0"
0?
0@
0&
#5421780
1"
1?
1@
1&
1k
0l
00
0/
0.
1-
12
01
10
1/
1<
04
03
02
11
15
0;
14
13
05
1;
#5441640
0"
0?
0@
0&
#5461500
1"
1?
1@
1&
1l
1.
0-
00
0/
0<
12
01
04
03
15
0;
#5481360
0"
0?
0@
0&
#5501220
1"
1?
1@
1&
0j
0k
0l
0i
1h
02
11
10
1/
0.
1-
14
13
16
05
03
01
0/
1<
06
15
1;
17
0;
07
1=
0=
#5521080
0"
0?
0@
0&
#5540940
1"
1?
1@
1&
1l
1.
0-
1/
0<
#5560800
0"
0?
0@
0&
#5580660
1"
1?
1@
1&
1k
0l
00
0/
0.
1-
11
10
1/
1<
01
#5600520
0"
0?
0@
0&
#5620380
1"
1?
1@
1&
1l
1.
0-
00
0/
0<
11
#5640240
0"
0?
0@
0&
#5660100
1"
1?
1@
1&
1j
0k
0l
12
01
10
1/
0.
1-
13
02
11
0/
1<
1;
03
0;
#5679960
0"
0?
0@
0&
#5699820
1"
1?
1@
1&
1l
1.
0-
1/
0<
#5719680
0"
0?
0@
0&
#5739540
1"
1?
1@
1&
1k
0l
00
0/
0.
1-
12
01
10
1/
1<
13
02
11
1;
03
0;
#5759400
0"
0?
0@
0&
#5779260
1"
1?
1@
1&
1l
1.
0-
00
0/
0<
12
01
13
1;
#5799120
0"
0?
0@
0&
#5818980
1"
1?
1@
1&
0j
0k
0l
1i
19
02
11
10
1/
0.
1-
04
03
1<
0;
14
13
01
0/
16
05
06
15
1;
17
07
1=
0=
#5838840
0"
0?
0@
0&
#5858700
1"
1?
1@
1&
1l
09
1.
0-
0<
1/
#5878560
0"
0?
0@
0&
#5898420
1"
1?
1@
1&
1k
0l
00
0/
0.
1-
11
10
1/
1<
01
#5918280
0"
0?
0@
0&
#5938140
1"
1?
1@
1&
1l
1.
0-
00
0/
0<
11
#5958000
0"
0?
0@
0&
#5977860
1"
1?
1@
1&
1j
0k
0l
12
01
10
1/
0.
1-
04
03
02
11
0/
1<
16
05
0;
14
13
17
06
15
1;
1=
07
0=
#5997720
0"
0?
0@
0&
#6017580
1"
1?
1@
1&
1l
1.
0-
1/
0<
#6037440
0"
0?
0@
0&
#6057300
1"
1?
1@
1&
1k
0l
00
0/
0.
1-
12
01
10
1/
1<
04
03
02
11
16
05
0;
14
13
17
06
15
1;
1=
07
0=
#6077160
0"
0?
0@
0&
#6097020
1"
1?
1@
1&
1l
1.
0-
00
0/
0<
12
01
04
03
16
05
0;
17
1=
#6116880
0"
0?
0@
0&
#6136740
1"
1?
1@
1&
1g
0j
0k
0l
0i
0h
07
02
11
10
1/
0.
1-
14
13
06
15
0=
03
01
0/
1<
05
1;
17
0;
1=
#6156600
0"
0?
0@
0&
#6176460
1"
1?
1@
1&
1l
1.
0-
1/
0<
#6196320
0"
0?
0@
0&
#6216180
1"
1?
1@
1&
1k
0l
00
0/
0.
1-
11
10
1/
1<
01
#6236040
0"
0?
0@
0&
#6255900
1"
1?
1@
1&
1l
1.
0-
00
0/
0<
11
#6275760
0"
0?
0@
0&
#6295620
1"
1?
1@
1&
1j
0k
0l
12
01
10
1/
0.
1-
13
02
11
0/
1<
1;
03
0;
#6315480
0"
0?
0@
0&
#6335340
1"
1?
1@
1&
1l
1.
0-
1/
0<
#6355200
0"
0?
0@
0&
#6375060
1"
1?
1@
1&
1k
0l
00
0/
0.
1-
12
01
10
1/
1<
13
02
11
1;
03
0;
#6394920
0"
0?
0@
0&
#6414780
1"
1?
1@
1&
1l
1.
0-
00
0/
0<
12
01
13
1;
#6434640
0"
0?
0@
0&
#6454500
1"
1?
1@
1&
0j
0k
0l
1i
19
02
11
10
1/
0.
1-
04
03
0=
0:
14
13
01
0/
15
05
0;
#6474360
0"
0?
0@
0&
#6494220
1"
1?
1@
1&
0g
0i
08
1=
1<
1;
07
09
03
0=
0;
#6514080
0"
0?
0@
0&
#6533940
1"
1?
1@
1&
1l
1.
0-
1/
0<
#6553800
0"
0?
0@
0&
#6573660
1"
1?
1@
1&
1k
0l
00
0/
0.
1-
11
10
1/
1<
01
#6593520
0"
0?
0@
0&
#6613380
1"
1?
1@
1&
1l
1.
0-
00
0/
0<
11
#6633240
0"
0?
0@
0&
#6653100
1"
1?
1@
1&
1j
0k
0l
12
01
10
1/
0.
1-
13
02
11
0/
1<
1;
03
0;
#6672960
0"
0?
0@
0&
#6692820
1"
1?
1@
1&
1l
1.
0-
1/
0<
#6712680
0"
0?
0@
0&
#6732540
1"
1?
1@
1&
1k
0l
00
0/
0.
1-
12
01
10
1/
1<
13
02
11
1;
03
0;
#6752400
0"
0?
0@
0&
#6772260
1"
1?
1@
1&
1l
1.
0-
00
0/
0<
12
01
13
1;
#6792120
0"
0?
0@
0&
#6811980
1"
1?
1@
1&
0j
0k
0l
1i
19
02
11
10
1/
0.
1-
04
03
1<
0;
14
13
01
0/
15
05
1;
#6831840
0"
0?
0@
0&
#6851700
1"
1?
1@
1&
1l
09
1.
0-
0<
1/
#6871560
0"
0?
0@
0&
#6891420
1"
1?
1@
1&
1k
0l
00
0/
0.
1-
11
10
1/
1<
01
#6911280
0"
0?
0@
0&
#6931140
1"
1?
1@
1&
1l
1.
0-
00
0/
0<
11
#6951000
0"
0?
0@
0&
#6970860
1"
1?
1@
1&
1j
0k
0l
12
01
10
1/
0.
1-
04
03
02
11
0/
1<
15
0;
14
13
05
1;
#6990720
0"
0?
0@
0&
#7010580
1"
1?
1@
1&
1l
1.
0-
1/
0<
#7030440
0"
0?
0@
0&
#7050300
1"
1?
1@
1&
1k
0l
00
0/
0.
1-
12
01
10
1/
1<
04
03
02
11
15
0;
14
13
05
1;
#7070160
0"
0?
0@
0&
#7090020
1"
1?
1@
1&
1l
1.
0-
00
0/
0<
12
01
04
03
15
0;
#7109880
0"
0?
0@
0&
#7129740
1"
1?
1@
1&
0j
0k
0l
0i
1h
02
11
10
1/
0.
1-
14
13
16
05
03
01
0/
1<
06
15
1;
17
0;
07
1=
0=
#7149600
0"
0?
0@
0&
#7169460
1"
1?
1@
1&
1l
1.
0-
1/
0<
#7189320
0"
0?
0@
0&
#7209180
1"
1?
1@
1&
1k
0l
00
0/
0.
1-
11
10
1/
1<
01
#7229040
0"
0?
0@
0&
#7248900
1"
1?
1@
1&
1l
1.
0-
00
0/
0<
11
#7268760
0"
0?
0@
0&
#7288620
1"
1?
1@
1&
1j
0k
0l
12
01
10
1/
0.
1-
13
02
11
0/
1<
1;
03
0;
#7308480
0"
0?
0@
0&
#7328340
1"
1?
1@
1&
1l
1.
0-
1/
0<
#7348200
0"
0?
0@
0&
#7368060
1"
1?
1@
1&
1k
0l
00
0/
0.
1-
12
01
10
1/
1<
13
02
11
1;
03
0;
#7387920
0"
0?
0@
0&
