simulation/qsim/CEG3155_PROJECT.msim.vcd
$comment
	File created using the following command:
		vcd file CEG3155_PROJECT.msim.vcd -direction
$end
$date
	Wed Dec 04 16:48:05 2024
$end
$version
	ModelSim Version 10.1d
$end
$timescale
	1ps
$end
$scope module baudRateGenerator_vlg_vec_tst $end
$var reg 3 ! baudSel [2:0] $end
$var reg 1 " clk $end
$var reg 1 # reset $end
$var wire 1 $ bclk $end
$var wire 1 % bclkx8 $end
$var wire 1 & sampler $end
$scope module i1 $end
$var wire 1 ' gnd $end
$var wire 1 ( vcc $end
$var wire 1 ) unknown $end
$var tri1 1 * devclrn $end
$var tri1 1 + devpor $end
$var tri1 1 , devoe $end
$var wire 1 - count2|reg|reg_n_bits:7:b|int_q~0_combout $end
$var wire 1 . count1|reg|reg_n_bits:6:b|int_q~q $end
$var wire 1 / count1|reg|reg_n_bits:7:b|int_q~q $end
$var wire 1 0 comp41|comparatorLoop:4:comparator_n|int_GT1~0_combout $end
$var wire 1 1 count1|reg|reg_n_bits:4:b|int_q~q $end
$var wire 1 2 count1|reg|reg_n_bits:5:b|int_q~q $end
$var wire 1 3 comp41|comparatorLoop:4:comparator_n|int_GT1~1_combout $end
$var wire 1 4 count1|reg|reg_n_bits:0:b|int_q~q $end
$var wire 1 5 count1|reg|reg_n_bits:1:b|int_q~q $end
$var wire 1 6 comp41|comparatorLoop:0:comparator_n|o_GT~0_combout $end
$var wire 1 7 count1|reg|reg_n_bits:3:b|int_q~q $end
$var wire 1 8 comp41|comparatorLoop:3:comparator_n|o_LT~0_combout $end
$var wire 1 9 comp41|comparatorLoop:0:comparator_n|o_GT~1_combout $end
$var wire 1 : count1|reg|reg_n_bits:2:b|int_q~q $end
$var wire 1 ; comp41|comparatorLoop:0:comparator_n|o_GT~2_combout $end
$var wire 1 < comp41|comparatorLoop:0:comparator_n|o_GT~3_combout $end
$var wire 1 = comp41|comparatorLoop:3:comparator_n|int_GT2~0_combout $end
$var wire 1 > comp41|comparatorLoop:0:comparator_n|o_GT~4_combout $end
$var wire 1 ? count1|adder|loop_add:3:addrn|carryFromBoth~combout $end
$var wire 1 @ count1|reg|reg_n_bits:6:b|int_q~0_combout $end
$var wire 1 A count1_reset~combout $end
$var wire 1 B count1|reg|reg_n_bits:7:b|int_q~0_combout $end
$var wire 1 C count1|reg|reg_n_bits:7:b|int_q~1_combout $end
$var wire 1 D count1|reg|reg_n_bits:4:b|int_q~0_combout $end
$var wire 1 E count1|reg|reg_n_bits:5:b|int_q~0_combout $end
$var wire 1 F count1|reg|reg_n_bits:1:b|int_q~0_combout $end
$var wire 1 G count1|reg|reg_n_bits:3:b|int_q~0_combout $end
$var wire 1 H count1|reg|reg_n_bits:2:b|int_q~0_combout $end
$var wire 1 I comp41|o_AeqB~combout $end
$var wire 1 J count1|reg|reg_n_bits:0:b|int_q~0_combout $end
$var wire 1 K baudSel[0]~input_o $end
$var wire 1 L baudSel[2]~input_o $end
$var wire 1 M clk~input_o $end
$var wire 1 N bclk~output_o $end
$var wire 1 O bclkx8~output_o $end
$var wire 1 P baudSel[1]~input_o $end
$var wire 1 Q count2|reg|reg_n_bits:0:b|int_q~0_combout $end
$var wire 1 R reset~input_o $end
$var wire 1 S reset~inputclkctrl_outclk $end
$var wire 1 T count2|reg|reg_n_bits:0:b|int_q~q $end
$var wire 1 U count2|reg|reg_n_bits:1:b|int_q~0_combout $end
$var wire 1 V count2|reg|reg_n_bits:1:b|int_q~q $end
$var wire 1 W baudMux|mux1|muxfinal|y~0_combout $end
$var wire 1 X count2|reg|reg_n_bits:2:b|int_q~0_combout $end
$var wire 1 Y count2|reg|reg_n_bits:2:b|int_q~q $end
$var wire 1 Z count2|reg|reg_n_bits:3:b|int_q~0_combout $end
$var wire 1 [ count2|reg|reg_n_bits:3:b|int_q~q $end
$var wire 1 \ baudMux|mux1|muxfinal|y~1_combout $end
$var wire 1 ] baudMux|mux1|muxfinal|y~2_combout $end
$var wire 1 ^ count2|adder|loop_add:3:addrn|carryFromBoth~combout $end
$var wire 1 _ count2|reg|reg_n_bits:5:b|int_q~0_combout $end
$var wire 1 ` count2|reg|reg_n_bits:5:b|int_q~q $end
$var wire 1 a count2|reg|reg_n_bits:4:b|int_q~0_combout $end
$var wire 1 b count2|reg|reg_n_bits:4:b|int_q~q $end
$var wire 1 c baudMux|mux2|muxfinal|y~0_combout $end
$var wire 1 d count2|reg|reg_n_bits:7:b|int_q~1_combout $end
$var wire 1 e count2|reg|reg_n_bits:7:b|int_q~q $end
$var wire 1 f count2|reg|reg_n_bits:6:b|int_q~0_combout $end
$var wire 1 g count2|reg|reg_n_bits:6:b|int_q~q $end
$var wire 1 h baudMux|mux2|muxfinal|y~1_combout $end
$var wire 1 i baudMux|mux2|muxfinal|y~2_combout $end
$var wire 1 j baudMux|muxfinal|y~combout $end
$var wire 1 k baudMux|muxfinal|y~clkctrl_outclk $end
$var wire 1 l count3|reg|reg_n_bits:0:b|int_q~0_combout $end
$var wire 1 m count3|reg|reg_n_bits:0:b|int_q~q $end
$var wire 1 n count3|reg|reg_n_bits:1:b|int_q~0_combout $end
$var wire 1 o count3|reg|reg_n_bits:1:b|int_q~q $end
$var wire 1 p count3|reg|reg_n_bits:2:b|int_q~0_combout $end
$var wire 1 q count3|reg|reg_n_bits:2:b|int_q~q $end
$upscope $end
$upscope $end
$enddefinitions $end
#0
$dumpvars
b0 !
0"
1#
0$
0%
x&
0'
1(
x)
1*
1+
1,
1-
0.
0/
10
01
02
03
04
05
16
07
18
09
0:
0;
0<
1=
0>
0?
0@
1A
1B
0C
0D
0E
0F
0G
0H
0I
1J
0K
0L
0M
0N
0O
0P
1Q
1R
1S
0T
0U
0V
1W
0X
0Y
0Z
0[
1\
1]
0^
0_
0`
0a
0b
1c
0d
0e
0f
0g
1h
1i
0j
0k
1l
0m
0n
0o
0p
0q
$end
#19860
1"
1M
0&
#39720
0"
0M
1&
#50000
0#
0R
0S
0&
0A
#59580
1"
1M
1&
14
0J
1F
1;
06
19
#79440
0"
0M
0&
#99300
1"
1M
1&
15
04
1J
#119160
0"
0M
0&
#139020
1"
1M
1&
14
0J
1H
0F
#158880
0"
0M
0&
#178740
1"
1M
1&
1:
05
04
16
1J
09
#198600
0"
0M
0&
#218460
1"
1M
1&
14
0J
1F
06
19
#238320
0"
0M
0&
#258180
1"
1M
1&
15
04
1J
#278040
0"
0M
0&
#297900
1"
1M
1&
14
0J
0H
1G
0F
#317760
0"
0M
0&
#337620
1"
1M
1&
0:
17
05
04
0;
16
1J
09
#357480
0"
0M
0&
#377340
1"
1M
1&
14
0J
1F
1;
06
19
#397200
0"
0M
0&
#417060
1"
1M
1&
15
04
1J
#436920
0"
0M
0&
#456780
1"
1M
1&
14
0J
1H
0F
#476640
0"
0M
0&
#496500
1"
1M
1&
1:
05
04
16
1J
09
#516360
0"
0M
0&
#536220
1"
1M
1&
14
0J
1F
06
19
#556080
0"
0M
0&
#575940
1"
1M
1&
15
04
1J
#595800
0"
0M
0&
#615660
1"
1M
1&
14
0J
0H
0G
0F
1?
1D
#635520
0"
0M
0&
#655380
1"
1M
1&
0:
07
05
04
11
0?
0;
16
1J
1E
0D
0E
1D
09
#675240
0"
0M
0&
#695100
1"
1M
1&
14
0J
1F
1;
06
19
#714960
0"
0M
0&
#734820
1"
1M
1&
15
04
1J
#754680
0"
0M
0&
#774540
1"
1M
1&
14
0J
1H
0F
#794400
0"
0M
0&
#814260
1"
1M
1&
1:
05
04
16
1J
09
#834120
0"
0M
0&
#853980
1"
1M
1&
14
0J
1F
06
19
#873840
0"
0M
0&
#893700
1"
1M
1&
15
04
1J
#913560
0"
0M
0&
#933420
1"
1M
1&
14
0J
0H
1G
0F
#953280
0"
0M
0&
#973140
1"
1M
1&
0:
17
05
04
0;
16
1J
09
#993000
0"
0M
0&
#1012860
1"
1M
1&
14
0J
1F
1;
06
19
#1032720
0"
0M
0&
#1052580
1"
1M
1&
15
04
1J
#1072440
0"
0M
0&
#1092300
1"
1M
1&
14
0J
1H
0F
#1112160
0"
0M
0&
#1132020
1"
1M
1&
1:
05
04
16
1J
09
#1151880
0"
0M
0&
#1171740
1"
1M
1&
14
0J
1F
06
19
#1191600
0"
0M
0&
#1211460
1"
1M
1&
15
04
1J
#1231320
0"
0M
0&
#1251180
1"
1M
1&
14
0J
0H
0G
0F
1?
1E
0D
#1271040
0"
0M
0&
#1290900
1"
1M
1&
0:
07
05
04
12
01
0?
0;
16
1J
1D
0D
09
#1310760
0"
0M
0&
#1330620
1"
1M
1&
14
0J
1F
1;
06
19
#1350480
0"
0M
0&
#1370340
1"
1M
1&
15
04
1J
#1390200
0"
0M
0&
#1410060
1"
1M
1&
14
0J
1H
0F
#1429920
0"
0M
0&
#1449780
1"
1M
1&
1:
05
04
16
1J
09
#1469640
0"
0M
0&
#1489500
1"
1M
1&
14
0J
1F
06
19
#1509360
0"
0M
0&
#1529220
1"
1M
1&
15
04
1J
#1549080
0"
0M
0&
#1568940
1"
1M
1&
14
0J
0H
1G
0F
#1588800
0"
0M
0&
#1608660
1"
1M
1&
0:
17
05
04
0;
08
16
1J
1I
1T
0W
1U
0Q
0]
1j
1k
1O
1%
1m
1n
0l
#1628520
0"
0M
0&
#1648380
1"
1M
1&
14
0J
1F
1;
06
1<
1>
0I
1A
02
04
07
0E
18
1J
0G
0F
0;
16
0<
09
0>
0A
#1668240
0"
0M
0&
#1688100
1"
1M
1&
14
0J
1F
1;
06
19
#1707960
0"
0M
0&
#1727820
1"
1M
1&
15
04
1J
#1747680
0"
0M
0&
#1767540
1"
1M
1&
14
0J
1H
0F
#1787400
0"
0M
0&
#1807260
1"
1M
1&
1:
05
04
16
1J
09
#1827120
0"
0M
0&
#1846980
1"
1M
1&
14
0J
1F
06
19
#1866840
0"
0M
0&
#1886700
1"
1M
1&
15
04
1J
#1906560
0"
0M
0&
#1926420
1"
1M
1&
14
0J
0H
1G
0F
#1946280
0"
0M
0&
#1966140
1"
1M
1&
0:
17
05
04
0;
16
1J
09
#1986000
0"
0M
0&
#2005860
1"
1M
1&
14
0J
1F
1;
06
19
#2025720
0"
0M
0&
#2045580
1"
1M
1&
15
04
1J
#2065440
0"
0M
0&
#2085300
1"
1M
1&
14
0J
1H
0F
#2105160
0"
0M
0&
#2125020
1"
1M
1&
1:
05
04
16
1J
09
#2144880
0"
0M
0&
#2164740
1"
1M
1&
14
0J
1F
06
19
#2184600
0"
0M
0&
#2204460
1"
1M
1&
15
04
1J
#2224320
0"
0M
0&
#2244180
1"
1M
1&
14
0J
0H
0G
0F
1?
1D
#2264040
0"
0M
0&
#2283900
1"
1M
1&
0:
07
05
04
11
0?
0;
16
1J
1E
0D
0E
1D
09
#2303760
0"
0M
0&
#2323620
1"
1M
1&
14
0J
1F
1;
06
19
#2343480
0"
0M
0&
#2363340
1"
1M
1&
15
04
1J
#2383200
0"
0M
0&
#2403060
1"
1M
1&
14
0J
1H
0F
#2422920
0"
0M
0&
#2442780
1"
1M
1&
1:
05
04
16
1J
09
#2462640
0"
0M
0&
#2482500
1"
1M
1&
14
0J
1F
06
19
#2502360
0"
0M
0&
#2522220
1"
1M
1&
15
04
1J
#2542080
0"
0M
0&
#2561940
1"
1M
1&
14
0J
0H
1G
0F
#2581800
0"
0M
0&
#2601660
1"
1M
1&
0:
17
05
04
0;
16
1J
09
#2621520
0"
0M
0&
#2641380
1"
1M
1&
14
0J
1F
1;
06
19
#2661240
0"
0M
0&
#2681100
1"
1M
1&
15
04
1J
#2700960
0"
0M
0&
#2720820
1"
1M
1&
14
0J
1H
0F
#2740680
0"
0M
0&
#2760540
1"
1M
1&
1:
05
04
16
1J
09
#2780400
0"
0M
0&
#2800260
1"
1M
1&
14
0J
1F
06
19
#2820120
0"
0M
0&
#2839980
1"
1M
1&
15
04
1J
#2859840
0"
0M
0&
#2879700
1"
1M
1&
14
0J
0H
0G
0F
1?
1E
0D
#2899560
0"
0M
0&
#2919420
1"
1M
1&
0:
07
05
04
12
01
0?
0;
16
1J
1D
0D
09
#2939280
0"
0M
0&
#2959140
1"
1M
1&
14
0J
1F
1;
06
19
#2979000
0"
0M
0&
#2998860
1"
1M
1&
15
04
1J
#3018720
0"
0M
0&
#3038580
1"
1M
1&
14
0J
1H
0F
#3058440
0"
0M
0&
#3078300
1"
1M
1&
1:
05
04
16
1J
09
#3098160
0"
0M
0&
#3118020
1"
1M
1&
14
0J
1F
06
19
#3137880
0"
0M
0&
#3157740
1"
1M
1&
15
04
1J
#3177600
0"
0M
0&
#3197460
1"
1M
1&
14
0J
0H
1G
0F
#3217320
0"
0M
0&
#3237180
1"
1M
1&
0:
17
05
04
0;
08
16
1J
1I
1V
0T
1W
1Q
1]
0j
0k
0O
0%
#3257040
0"
0M
0&
#3276900
1"
1M
1&
14
0J
1F
1;
06
1<
1>
0I
1A
02
04
07
0E
18
1J
0G
0F
0;
16
0<
09
0>
0A
#3296760
0"
0M
0&
#3316620
1"
1M
1&
14
0J
1F
1;
06
19
#3336480
0"
0M
0&
#3356340
1"
1M
1&
15
04
1J
#3376200
0"
0M
0&
#3396060
1"
1M
1&
14
0J
1H
0F
#3415920
0"
0M
0&
#3435780
1"
1M
1&
1:
05
04
16
1J
09
#3455640
0"
0M
0&
#3475500
1"
1M
1&
14
0J
1F
06
19
#3495360
0"
0M
0&
#3515220
1"
1M
1&
15
04
1J
#3535080
0"
0M
0&
#3554940
1"
1M
1&
14
0J
0H
1G
0F
#3574800
0"
0M
0&
#3594660
1"
1M
1&
0:
17
05
04
0;
16
1J
09
#3614520
0"
0M
0&
#3634380
1"
1M
1&
14
0J
1F
1;
06
19
#3654240
0"
0M
0&
#3674100
1"
1M
1&
15
04
1J
#3693960
0"
0M
0&
#3713820
1"
1M
1&
14
0J
1H
0F
#3733680
0"
0M
0&
#3753540
1"
1M
1&
1:
05
04
16
1J
09
#3773400
0"
0M
0&
#3793260
1"
1M
1&
14
0J
1F
06
19
#3813120
0"
0M
0&
#3832980
1"
1M
1&
15
04
1J
#3852840
0"
0M
0&
#3872700
1"
1M
1&
14
0J
0H
0G
0F
1?
1D
#3892560
0"
0M
0&
#3912420
1"
1M
1&
0:
07
05
04
11
0?
0;
16
1J
1E
0D
0E
1D
09
#3932280
0"
0M
0&
#3952140
1"
1M
1&
14
0J
1F
1;
06
19
#3972000
0"
0M
0&
#3991860
1"
1M
1&
15
04
1J
#4011720
0"
0M
0&
#4031580
1"
1M
1&
14
0J
1H
0F
#4051440
0"
0M
0&
#4071300
1"
1M
1&
1:
05
04
16
1J
09
#4091160
0"
0M
0&
#4111020
1"
1M
1&
14
0J
1F
06
19
#4130880
0"
0M
0&
#4150740
1"
1M
1&
15
04
1J
#4170600
0"
0M
0&
#4190460
1"
1M
1&
14
0J
0H
1G
0F
#4210320
0"
0M
0&
#4230180
1"
1M
1&
0:
17
05
04
0;
16
1J
09
#4250040
0"
0M
0&
#4269900
1"
1M
1&
14
0J
1F
1;
06
19
#4289760
0"
0M
0&
#4309620
1"
1M
1&
15
04
1J
#4329480
0"
0M
0&
#4349340
1"
1M
1&
14
0J
1H
0F
#4369200
0"
0M
0&
#4389060
1"
1M
1&
1:
05
04
16
1J
09
#4408920
0"
0M
0&
#4428780
1"
1M
1&
14
0J
1F
06
19
#4448640
0"
0M
0&
#4468500
1"
1M
1&
15
04
1J
#4488360
0"
0M
0&
#4508220
1"
1M
1&
14
0J
0H
0G
0F
1?
1E
0D
#4528080
0"
0M
0&
#4547940
1"
1M
1&
0:
07
05
04
12
01
0?
0;
16
1J
1D
0D
09
#4567800
0"
0M
0&
#4587660
1"
1M
1&
14
0J
1F
1;
06
19
#4607520
0"
0M
0&
#4627380
1"
1M
1&
15
04
1J
#4647240
0"
0M
0&
#4667100
1"
1M
1&
14
0J
1H
0F
#4686960
0"
0M
0&
#4706820
1"
1M
1&
1:
05
04
16
1J
09
#4726680
0"
0M
0&
#4746540
1"
1M
1&
14
0J
1F
06
19
#4766400
0"
0M
0&
#4786260
1"
1M
1&
15
04
1J
#4806120
0"
0M
0&
#4825980
1"
1M
1&
14
0J
0H
1G
0F
#4845840
0"
0M
0&
#4865700
1"
1M
1&
0:
17
05
04
0;
08
16
1J
1I
1T
1X
0W
0U
0Q
0]
1j
1k
1O
1%
1o
0m
1l
#4885560
0"
0M
0&
#4905420
1"
1M
1&
14
0J
1F
1;
06
1<
1>
0I
1A
02
04
07
0E
18
1J
0G
0F
0;
16
0<
09
0>
0A
#4925280
0"
0M
0&
#4945140
1"
1M
1&
14
0J
1F
1;
06
19
#4965000
0"
0M
0&
#4984860
1"
1M
1&
15
04
1J
#5004720
0"
0M
0&
#5024580
1"
1M
1&
14
0J
1H
0F
#5044440
0"
0M
0&
#5064300
1"
1M
1&
1:
05
04
16
1J
09
#5084160
0"
0M
0&
#5104020
1"
1M
1&
14
0J
1F
06
19
#5123880
0"
0M
0&
#5143740
1"
1M
1&
15
04
1J
#5163600
0"
0M
0&
#5183460
1"
1M
1&
14
0J
0H
1G
0F
#5203320
0"
0M
0&
#5223180
1"
1M
1&
0:
17
05
04
0;
16
1J
09
#5243040
0"
0M
0&
#5262900
1"
1M
1&
14
0J
1F
1;
06
19
#5282760
0"
0M
0&
#5302620
1"
1M
1&
15
04
1J
#5322480
0"
0M
0&
#5342340
1"
1M
1&
14
0J
1H
0F
#5362200
0"
0M
0&
#5382060
1"
1M
1&
1:
05
04
16
1J
09
#5401920
0"
0M
0&
#5421780
1"
1M
1&
14
0J
1F
06
19
#5441640
0"
0M
0&
#5461500
1"
1M
1&
15
04
1J
#5481360
0"
0M
0&
#5501220
1"
1M
1&
14
0J
0H
0G
0F
1?
1D
#5521080
0"
0M
0&
#5540940
1"
1M
1&
0:
07
05
04
11
0?
0;
16
1J
1E
0D
0E
1D
09
#5560800
0"
0M
0&
#5580660
1"
1M
1&
14
0J
1F
1;
06
19
#5600520
0"
0M
0&
#5620380
1"
1M
1&
15
04
1J
#5640240
0"
0M
0&
#5660100
1"
1M
1&
14
0J
1H
0F
#5679960
0"
0M
0&
#5699820
1"
1M
1&
1:
05
04
16
1J
09
#5719680
0"
0M
0&
#5739540
1"
1M
1&
14
0J
1F
06
19
#5759400
0"
0M
0&
#5779260
1"
1M
1&
15
04
1J
#5799120
0"
0M
0&
#5818980
1"
1M
1&
14
0J
0H
1G
0F
#5838840
0"
0M
0&
#5858700
1"
1M
1&
0:
17
05
04
0;
16
1J
09
#5878560
0"
0M
0&
#5898420
1"
1M
1&
14
0J
1F
1;
06
19
#5918280
0"
0M
0&
#5938140
1"
1M
1&
15
04
1J
#5958000
0"
0M
0&
#5977860
1"
1M
1&
14
0J
1H
0F
#5997720
0"
0M
0&
#6017580
1"
1M
1&
1:
05
04
16
1J
09
#6037440
0"
0M
0&
#6057300
1"
1M
1&
14
0J
1F
06
19
#6077160
0"
0M
0&
#6097020
1"
1M
1&
15
04
1J
#6116880
0"
0M
0&
#6136740
1"
1M
1&
14
0J
0H
0G
0F
1?
1E
0D
#6156600
0"
0M
0&
#6176460
1"
1M
1&
0:
07
05
04
12
01
0?
0;
16
1J
1D
0D
09
#6196320
0"
0M
0&
#6216180
1"
1M
1&
14
0J
1F
1;
06
19
#6236040
0"
0M
0&
#6255900
1"
1M
1&
15
04
1J
#6275760
0"
0M
0&
#6295620
1"
1M
1&
14
0J
1H
0F
#6315480
0"
0M
0&
#6335340
1"
1M
1&
1:
05
04
16
1J
09
#6355200
0"
0M
0&
#6375060
1"
1M
1&
14
0J
1F
06
19
#6394920
0"
0M
0&
#6414780
1"
1M
1&
15
04
1J
#6434640
0"
0M
0&
#6454500
1"
1M
1&
14
0J
0H
1G
0F
#6474360
0"
0M
0&
#6494220
1"
1M
1&
0:
17
05
04
0;
08
16
1J
1I
1Y
0V
0T
0\
1W
1Q
1]
0j
0k
0O
0%
#6514080
0"
0M
0&
#6533940
1"
1M
1&
14
0J
1F
1;
06
1<
1>
0I
1A
02
04
07
0E
18
1J
0G
0F
0;
16
0<
09
0>
0A
#6553800
0"
0M
0&
#6573660
1"
1M
1&
14
0J
1F
1;
06
19
#6593520
0"
0M
0&
#6613380
1"
1M
1&
15
04
1J
#6633240
0"
0M
0&
#6653100
1"
1M
1&
14
0J
1H
0F
#6672960
0"
0M
0&
#6692820
1"
1M
1&
1:
05
04
16
1J
09
#6712680
0"
0M
0&
#6732540
1"
1M
1&
14
0J
1F
06
19
#6752400
0"
0M
0&
#6772260
1"
1M
1&
15
04
1J
#6792120
0"
0M
0&
#6811980
1"
1M
1&
14
0J
0H
1G
0F
#6831840
0"
0M
0&
#6851700
1"
1M
1&
0:
17
05
04
0;
16
1J
09
#6871560
0"
0M
0&
#6891420
1"
1M
1&
14
0J
1F
1;
06
19
#6911280
0"
0M
0&
#6931140
1"
1M
1&
15
04
1J
#6951000
0"
0M
0&
#6970860
1"
1M
1&
14
0J
1H
0F
#6990720
0"
0M
0&
#7010580
1"
1M
1&
1:
05
04
16
1J
09
#7030440
0"
0M
0&
#7050300
1"
1M
1&
14
0J
1F
06
19
#7070160
0"
0M
0&
#7090020
1"
1M
1&
15
04
1J
#7109880
0"
0M
0&
#7129740
1"
1M
1&
14
0J
0H
0G
0F
1?
1D
#7149600
0"
0M
0&
#7169460
1"
1M
1&
0:
07
05
04
11
0?
0;
16
1J
1E
0D
0E
1D
09
#7189320
0"
0M
0&
#7209180
1"
1M
1&
14
0J
1F
1;
06
19
#7229040
0"
0M
0&
#7248900
1"
1M
1&
15
04
1J
#7268760
0"
0M
0&
#7288620
1"
1M
1&
14
0J
1H
0F
#7308480
0"
0M
0&
#7328340
1"
1M
1&
1:
05
04
16
1J
09
#7348200
0"
0M
0&
#7368060
1"
1M
1&
14
0J
1F
06
19
#7387920
0"
0M
0&
#7407780
1"
1M
1&
15
04
1J
#7427640
0"
0M
0&
#7447500
1"
1M
1&
14
0J
0H
1G
0F
#7467360
0"
0M
0&
#7487220
1"
1M
1&
0:
17
05
04
0;
16
1J
09
#7507080
0"
0M
0&
#7526940
1"
1M
1&
14
0J
1F
1;
06
19
#7546800
0"
0M
0&
#7566660
1"
1M
1&
15
04
1J
#7586520
0"
0M
0&
#7606380
1"
1M
1&
14
0J
1H
0F
#7626240
0"
0M
0&
#7646100
1"
1M
1&
1:
05
04
16
1J
09
#7665960
0"
0M
0&
#7685820
1"
1M
1&
14
0J
1F
06
19
#7705680
0"
0M
0&
#7725540
1"
1M
1&
15
04
1J
#7745400
0"
0M
0&
#7765260
1"
1M
1&
14
0J
0H
0G
0F
1?
1E
0D
#7785120
0"
0M
0&
#7804980
1"
1M
1&
0:
07
05
04
12
01
0?
0;
16
1J
1D
0D
09
#7824840
0"
0M
0&
#7844700
1"
1M
1&
14
0J
1F
1;
06
19
#7864560
0"
0M
0&
#7884420
1"
1M
1&
15
04
1J
#7904280
0"
0M
0&
#7924140
1"
1M
1&
14
0J
1H
0F
#7944000
0"
0M
0&
#7963860
1"
1M
1&
1:
05
04
16
1J
09
#7983720
0"
0M
0&
#8003580
1"
1M
1&
14
0J
1F
06
19
#8023440
0"
0M
0&
#8043300
1"
1M
1&
15
04
1J
#8063160
0"
0M
0&
#8083020
1"
1M
1&
14
0J
0H
1G
0F
#8102880
0"
0M
0&
#8122740
1"
1M
1&
0:
17
05
04
0;
08
16
1J
1I
1T
0W
1U
0Q
0]
1j
1k
1O
1%
1m
1p
0n
0l
#8142600
0"
0M
0&
#8162460
1"
1M
1&
14
0J
1F
1;
06
1<
1>
0I
1A
02
04
07
0E
18
1J
0G
0F
0;
16
0<
09
0>
0A
#8182320
0"
0M
0&
#8202180
1"
1M
1&
14
0J
1F
1;
06
19
#8222040
0"
0M
0&
#8241900
1"
1M
1&
15
04
1J
#8261760
0"
0M
0&
#8281620
1"
1M
1&
14
0J
1H
0F
#8301480
0"
0M
0&
#8321340
1"
1M
1&
1:
05
04
16
1J
09
#8341200
0"
0M
0&
#8361060
1"
1M
1&
14
0J
1F
06
19
#8380920
0"
0M
0&
#8400780
1"
1M
1&
15
04
1J
#8420640
0"
0M
0&
#8440500
1"
1M
1&
14
0J
0H
1G
0F
#8460360
0"
0M
0&
#8480220
1"
1M
1&
0:
17
05
04
0;
16
1J
09
#8500080
0"
0M
0&
#8519940
1"
1M
1&
14
0J
1F
1;
06
19
#8539800
0"
0M
0&
#8559660
1"
1M
1&
15
04
1J
#8579520
0"
0M
0&
#8599380
1"
1M
1&
14
0J
1H
0F
#8619240
0"
0M
0&
#8639100
1"
1M
1&
1:
05
04
16
1J
09
#8658960
0"
0M
0&
#8678820
1"
1M
1&
14
0J
1F
06
19
#8698680
0"
0M
0&
#8718540
1"
1M
1&
15
04
1J
#8738400
0"
0M
0&
#8758260
1"
1M
1&
14
0J
0H
0G
0F
1?
1D
#8778120
0"
0M
0&
#8797980
1"
1M
1&
0:
07
05
04
11
0?
0;
16
1J
1E
0D
0E
1D
09
#8817840
0"
0M
0&
#8837700
1"
1M
1&
14
0J
1F
1;
06
19
#8857560
0"
0M
0&
#8877420
1"
1M
1&
15
04
1J
#8897280
0"
0M
0&
#8917140
1"
1M
1&
14
0J
1H
0F
#8937000
0"
0M
0&
#8956860
1"
1M
1&
1:
05
04
16
1J
09
#8976720
0"
0M
0&
#8996580
1"
1M
1&
14
0J
1F
06
19
#9016440
0"
0M
0&
#9036300
1"
1M
1&
15
04
1J
#9056160
0"
0M
0&
#9076020
1"
1M
1&
14
0J
0H
1G
0F
#9095880
0"
0M
0&
#9115740
1"
1M
1&
0:
17
05
04
0;
16
1J
09
#9135600
0"
0M
0&
#9155460
1"
1M
1&
14
0J
1F
1;
06
19
#9175320
0"
0M
0&
#9195180
1"
1M
1&
15
04
1J
#9215040
0"
0M
0&
#9234900
1"
1M
1&
14
0J
1H
0F
#9254760
0"
0M
0&
#9274620
1"
1M
1&
1:
05
04
16
1J
09
#9294480
0"
0M
0&
#9314340
1"
1M
1&
14
0J
1F
06
19
#9334200
0"
0M
0&
#9354060
1"
1M
1&
15
04
1J
#9373920
0"
0M
0&
#9393780
1"
1M
1&
14
0J
0H
0G
0F
1?
1E
0D
#9413640
0"
0M
0&
#9433500
1"
1M
1&
0:
07
05
04
12
01
0?
0;
16
1J
1D
0D
09
#9453360
0"
0M
0&
#9473220
1"
1M
1&
14
0J
1F
1;
06
19
#9493080
0"
0M
0&
#9512940
1"
1M
1&
15
04
1J
#9532800
0"
0M
0&
#9552660
1"
1M
1&
14
0J
1H
0F
#9572520
0"
0M
0&
#9592380
1"
1M
1&
1:
05
04
16
1J
09
#9612240
0"
0M
0&
#9632100
1"
1M
1&
14
0J
1F
06
19
#9651960
0"
0M
0&
#9671820
1"
1M
1&
15
04
1J
#9691680
0"
0M
0&
#9711540
1"
1M
1&
14
0J
0H
1G
0F
#9731400
0"
0M
0&
#9751260
1"
1M
1&
0:
17
05
04
0;
08
16
1J
1I
1V
0T
1W
1Q
1]
0j
0k
0O
0%
#9771120
0"
0M
0&
#9790980
1"
1M
1&
14
0J
1F
1;
06
1<
1>
0I
1A
02
04
07
0E
18
1J
0G
0F
0;
16
0<
09
0>
0A
#9810840
0"
0M
0&
#9830700
1"
1M
1&
14
0J
1F
1;
06
19
#9850560
0"
0M
0&
#9870420
1"
1M
1&
15
04
1J
#9890280
0"
0M
0&
#9910140
1"
1M
1&
14
0J
1H
0F
#9930000
0"
0M
0&
#9949860
1"
1M
1&
1:
05
04
16
1J
09
#9969720
0"
0M
0&
#9989580
1"
1M
1&
14
0J
1F
06
19
#10009440
0"
0M
0&
#10029300
1"
1M
1&
15
04
1J
#10049160
0"
0M
0&
#10069020
1"
1M
1&
14
0J
0H
1G
0F
#10088880
0"
0M
0&
#10108740
1"
1M
1&
0:
17
05
04
0;
16
1J
09
#10128600
0"
0M
0&
#10148460
1"
1M
1&
14
0J
1F
1;
06
19
#10168320
0"
0M
0&
#10188180
1"
1M
1&
15
04
1J
#10208040
0"
0M
0&
#10227900
1"
1M
1&
14
0J
1H
0F
#10247760
0"
0M
0&
#10267620
1"
1M
1&
1:
05
04
16
1J
09
#10287480
0"
0M
0&
#10307340
1"
1M
1&
14
0J
1F
06
19
#10327200
0"
0M
0&
#10347060
1"
1M
1&
15
04
1J
#10366920
0"
0M
0&
#10386780
1"
1M
1&
14
0J
0H
0G
0F
1?
1D
#10406640
0"
0M
0&
#10426500
1"
1M
1&
0:
07
05
04
11
0?
0;
16
1J
1E
0D
0E
1D
09
#10446360
0"
0M
0&
#10466220
1"
1M
1&
14
0J
1F
1;
06
19
#10486080
0"
0M
0&
#10505940
1"
1M
1&
15
04
1J
#10525800
0"
0M
0&
#10545660
1"
1M
1&
14
0J
1H
0F
#10565520
0"
0M
0&
#10585380
1"
1M
1&
1:
05
04
16
1J
09
#10605240
0"
0M
0&
#10625100
1"
1M
1&
14
0J
1F
06
19
#10644960
0"
0M
0&
#10664820
1"
1M
1&
15
04
1J
#10684680
0"
0M
0&
#10704540
1"
1M
1&
14
0J
0H
1G
0F
#10724400
0"
0M
0&
#10744260
1"
1M
1&
0:
17
05
04
0;
16
1J
09
#10764120
0"
0M
0&
#10783980
1"
1M
1&
14
0J
1F
1;
06
19
#10803840
0"
0M
0&
#10823700
1"
1M
1&
15
04
1J
#10843560
0"
0M
0&
#10863420
1"
1M
1&
14
0J
1H
0F
#10883280
0"
0M
0&
#10903140
1"
1M
1&
1:
05
04
16
1J
09
#10923000
0"
0M
0&
#10942860
1"
1M
1&
14
0J
1F
06
19
#10962720
0"
0M
0&
#10982580
1"
1M
1&
15
04
1J
#11002440
0"
0M
0&
#11022300
1"
1M
1&
14
0J
0H
0G
0F
1?
1E
0D
#11042160
0"
0M
0&
